{
  "count": 492799,
  "next": "https://api.rawg.io/api/games?page=2",
  "previous": null,
  "results": [
    {
      "id": 3498,
      "slug": "grand-theft-auto-v",
      "name": "Grand Theft Auto V",
      "released": "2013-09-17",
      "tba": false,
      "background_image": "https://media.rawg.io/media/games/84d/84da2ac3fdfc6507807a1808595afb12.jpg",
      "rating": 4.48,
      "rating_top": 5,
      "ratings": [
        {
          "id": 5,
          "title": "exceptional",
          "count": 2607,
          "percent": 59.05
        }
      ],
      "ratings_count": 4369,
      "reviews_text_count": 27,
      "added": 13940,
      "added_by_status": {
        "yet": 343,
        "owned": 8427,
        "beaten": 3629,
        "toplay": 380,
        "dropped": 660,
        "playing": 501
      },
      "metacritic": 97,
      "playtime": 69,
      "suggestions_count": 426,
      "updated": "2020-09-23T07:10:53",
      "user_game": null,
      "reviews_count": 4415,
      "saturated_color": "0f0f0f",
      "dominant_color": "0f0f0f",
      "platforms": [
        {
          "platform": {
            "id": 4,
            "name": "PC",
            "slug": "pc",
            "image": null,
            "year_end": null,
            "year_start": null,
            "games_count": 288387,
            "image_background": "https://media.rawg.io/media/games/d82/d82990b9c67ba0d2d09d4e6fa88885a7.jpg"
          },
          "released_at": "2013-09-17",
          "requirements_en": {
            "minimum": "Minimum:OS: Windows 10 64 Bit, Windows 8.1 64 Bit, Windows 8 64 Bit, Windows 7 64 Bit Service Pack 1, Windows Vista 64 Bit Service Pack 2* (*NVIDIA video card recommended if running Vista OS)Processor: Intel Core 2 Quad CPU Q6600 @ 2.40GHz (4 CPUs) / AMD Phenom 9850 Quad-Core Processor (4 CPUs) @ 2.5GHzMemory: 4 GB RAMGraphics: NVIDIA 9800 GT 1GB / AMD HD 4870 1GB (DX 10, 10.1, 11)Storage: 72 GB available spaceSound Card: 100% DirectX 10 compatibleAdditional Notes: Over time downloadable content and programming changes will change the system requirements for this game.  Please refer to your hardware manufacturer and www.rockstargames.com/support for current compatibility information. Some system components such as mobile chipsets, integrated, and AGP graphics cards may be incompatible. Unlisted specifications may not be supported by publisher.     Other requirements:  Installation and online play requires log-in to Rockstar Games Social Club (13+) network; internet connection required for activation, online play, and periodic entitlement verification; software installations required including Rockstar Games Social Club platform, DirectX , Chromium, and Microsoft Visual C++ 2008 sp1 Redistributable Package, and authentication software that recognizes certain hardware attributes for entitlement, digital rights management, system, and other support purposes.     SINGLE USE SERIAL CODE REGISTRATION VIA INTERNET REQUIRED; REGISTRATION IS LIMITED TO ONE ROCKSTAR GAMES SOCIAL CLUB ACCOUNT (13+) PER SERIAL CODE; ONLY ONE PC LOG-IN ALLOWED PER SOCIAL CLUB ACCOUNT AT ANY TIME; SERIAL CODE(S) ARE NON-TRANSFERABLE ONCE USED; SOCIAL CLUB ACCOUNTS ARE NON-TRANSFERABLE.  Partner Requirements:  Please check the terms of service of this site before purchasing this software.",
            "recommended": "Recommended:OS: Windows 10 64 Bit, Windows 8.1 64 Bit, Windows 8 64 Bit, Windows 7 64 Bit Service Pack 1Processor: Intel Core i5 3470 @ 3.2GHz (4 CPUs) / AMD X8 FX-8350 @ 4GHz (8 CPUs)Memory: 8 GB RAMGraphics: NVIDIA GTX 660 2GB / AMD HD 7870 2GBStorage: 72 GB available spaceSound Card: 100% DirectX 10 compatibleAdditional Notes:"
          },
          "requirements_ru": null
        }
      ],
      "parent_platforms": [
        {
          "platform": {
            "id": 1,
            "name": "PC",
            "slug": "pc"
          }
        }
      ],
      "genres": [
        {
          "id": 4,
          "name": "Action",
          "slug": "action",
          "games_count": 105473,
          "image_background": "https://media.rawg.io/media/games/929/9295e55ce69cf5337c567983cf8b4137.jpeg"
        }
      ],
      "stores": [
        {
          "id": 438095,
          "store": {
            "id": 11,
            "name": "Epic Games",
            "slug": "epic-games",
            "domain": "epicgames.com",
            "games_count": 345,
            "image_background": "https://media.rawg.io/media/games/951/951572a3dd1e42544bd39a5d5b42d234.jpg"
          }
        }
      ],
      "clip": {
        "clip": "https://media.rawg.io/media/stories-640/c10/c10ef05b12482e4d2c647c4e26138d5b.mp4",
        "clips": {
          "320": "https://media.rawg.io/media/stories-320/dc5/dc5b17c957b3529d821bb97defcf9307.mp4",
          "640": "https://media.rawg.io/media/stories-640/c10/c10ef05b12482e4d2c647c4e26138d5b.mp4",
          "full": "https://media.rawg.io/media/stories/4a7/4a78913e6ee817ca1e34c7df8169eca4.mp4"
        },
        "video": "e6YNTl404pI",
        "preview": "https://media.rawg.io/media/stories-previews/4f1/4f13714c6626d211ab02e10b1866fb91.jpg"
      },
      "tags": [
        {
          "id": 31,
          "name": "Singleplayer",
          "slug": "singleplayer",
          "language": "eng",
          "games_count": 97663,
          "image_background": "https://media.rawg.io/media/games/7fa/7fa0b586293c5861ee32490e953a4996.jpg"
        }
      ],
      "esrb_rating": {
        "id": 4,
        "name": "Mature",
        "slug": "mature"
      },
      "short_screenshots": [
        {
          "id": -1,
          "image": "https://media.rawg.io/media/games/84d/84da2ac3fdfc6507807a1808595afb12.jpg"
        }
      ]
    }
  ],
  "seo_title": "All Games",
  "seo_description": "",
  "seo_keywords": "",
  "seo_h1": "All Games",
  "noindex": false,
  "nofollow": false,
  "description": "",
  "filters": {
    "years": [
      {
        "from": 2020,
        "to": 2020,
        "filter": "2020-01-01,2020-12-31",
        "decade": 2020,
        "years": [
          {
            "year": 2020,
            "count": 131790,
            "nofollow": false
          }
        ],
        "nofollow": true,
        "count": 131790
      }
    ]
  },
  "nofollow_collections": [
    "stores"
  ]
}